{
  "project_info": {
    "project_number": "578328303771",
    "project_id": "fp-ppb-f",
    "storage_bucket": "fp-ppb-f.appspot.com"
  },
  "client": [
    {
      "client_info": {
        "mobilesdk_app_id": "1:578328303771:android:4c86961f6ecc2d43538e3e",
        "android_client_info": {
          "package_name": "com.dicoding.picodiploma.fp_ppb_f"
        }
      },
      "oauth_client": [],
      "api_key": [
        {
          "current_key": "AIzaSyA6K1B0QeaQTJxSI-ru_rZB69li0vAHQoQ"
        }
      ],
      "services": {
        "appinvite_service": {
          "other_platform_oauth_client": []
        }
      }
    }
  ],
  "configuration_version": "1"
}